1.60276, 3.15679, 6.29099, 12.5627, 25.1045, 
0.793408, 1.52819, 3.00937, 5.94797, 12.0367, 
0.472236, 0.93283, 1.85719, 3.69899, 7.52447, 
0.420796, 0.839669, 1.67969, 3.3611, 6.71528, 
0.409364, 0.81393, 1.61817, 3.33108, 6.48202, 
0.404086, 0.80578, 1.61648, 3.21386, 6.43607, 
0.403841, 0.807664, 1.61836, 3.23143, 6.49464, 
0.403603, 0.814853, 1.62839, 3.24986, 6.504, 
0.403494, 0.81225, 1.62539, 3.26135, 6.53, 
