2.106843, 4.039671, 8.204118, 16.422408, 32.829522, 
1.075836, 2.005316, 4.015489, 8.088252, 16.082441, 
0.878531, 1.758548, 3.512586, 7.039859, 14.062398, 
0.873365, 1.745578, 3.484960, 6.973182, 13.942317, 
0.874133, 1.744476, 3.489323, 6.978175, 13.956722, 
0.875733, 1.751153, 3.503551, 7.006835, 14.010530, 
0.879083, 1.758123, 3.516910, 7.032145, 14.065813, 
0.882250, 1.764499, 3.528400, 7.055843, 14.113545, 
0.883873, 1.768699, 3.536188, 7.071857, 14.150784, 
