0.014904, 0.029343, 0.058349, 0.115952, 0.231668, 
0.017513, 0.035599, 0.069246, 0.134969, 0.263495, 
0.016831, 0.032134, 0.064693, 0.128437, 0.256247, 
0.016840, 0.032536, 0.064602, 0.128955, 0.257594, 
0.013600, 0.032529, 0.065090, 0.130259, 0.260910, 
0.017121, 0.032719, 0.065565, 0.130300, 0.261889, 
0.010181, 0.032986, 0.063302, 0.129132, 0.263498, 
0.017254, 0.033091, 0.065866, 0.130001, 0.264251, 
0.017181, 0.033213, 0.066475, 0.132870, 0.265685, 
