0.360077, 1.43423, 5.70799, 22.7922, 
0.132823, 0.779975, 2.80997, 11.233, 
0.060412, 0.441903, 1.5505, 6.04806, 
0.0593706, 0.336153, 1.14453, 4.39384, 
0.045773, 0.299387, 0.997765, 3.7954, 
0.0483322, 0.28542, 0.942964, 3.58782, 
0.0470836, 0.277182, 0.932507, 3.49749, 
0.0365545, 0.272079, 0.926011, 3.4652, 
0.0293633, 0.264753, 0.920742, 3.45562, 
