2.16891, 4.1244, 8.22323, 16.8408, 33.5043,  
1.2314, 2.43111, 4.90449, 9.82928, 19.7893,  
1.0721, 2.15208, 4.32188, 8.63606, 17.1961,  
1.0842, 2.17166, 4.3192, 8.64269, 17.4063,  
1.09609, 2.18391, 4.38066, 8.78296, 17.5585,  
1.04093, 2.11801, 4.25069, 8.55921, 17.0279,  
1.19318, 2.42819, 4.96263, 9.9903, 20.1088,  
1.41069, 2.91034, 5.86633, 12.0871, 23.9174,  
1.60324, 3.17962, 6.70846, 13.3399, 26.9526,  
